[
    {
      "_id": 99,
      "name":"Guna",
      "accountNumber":"123123123",
      "organization":"Microsoft"
    },
    {
      "_id": 91,
      "name":"Battu",
      "accountNumber":"922929292929",
      "organization":"Microsoft"
    },
    {
      "_id": 92,
      "name":"Akhil",
      "accountNumber":"2323223",
      "organization":"Microsoft"
    },
    {
      "_id": 93,
      "name":"Samrat",
      "accountNumber":"5555555",
      "organization":"Microsoft"
    },
    {
      "_id": 93,
      "name":"ABhi",
      "accountNumber":"23323223",
      "organization":"NUMSU"
    }
    
  ]
  